{
  "extensions": [
    ".jpg",
    ".mp3",
    ".mp4",
    ".png",
    ".wav",
    ".webp"
  ],
  "paths": [
    "res/drawable-hdpi-v4/abc_ab_share_pack_mtrl_alpha.9.png",
    "res/drawable-hdpi-v4/abc_btn_check_to_on_mtrl_000.png",
    "res/drawable-hdpi-v4/abc_btn_check_to_on_mtrl_015.png",
    "res/drawable-hdpi-v4/abc_btn_radio_to_on_mtrl_000.png",
    "res/drawable-hdpi-v4/abc_btn_radio_to_on_mtrl_015.png",
    "res/drawable-hdpi-v4/abc_btn_switch_to_on_mtrl_00001.9.png",
    "res/drawable-hdpi-v4/abc_btn_switch_to_on_mtrl_00012.9.png",
    "res/drawable-hdpi-v4/abc_cab_background_top_mtrl_alpha.9.png",
    "res/drawable-hdpi-v4/abc_ic_commit_search_api_mtrl_alpha.png",
    "res/drawable-hdpi-v4/abc_ic_menu_copy_mtrl_am_alpha.png",
    "res/drawable-hdpi-v4/abc_ic_menu_cut_mtrl_alpha.png",
    "res/drawable-hdpi-v4/abc_ic_menu_paste_mtrl_am_alpha.png",
    "res/drawable-hdpi-v4/abc_ic_menu_selectall_mtrl_alpha.png",
    "res/drawable-hdpi-v4/abc_ic_menu_share_mtrl_alpha.png",
    "res/drawable-hdpi-v4/abc_ic_star_black_16dp.png",
    "res/drawable-hdpi-v4/abc_ic_star_black_36dp.png",
    "res/drawable-hdpi-v4/abc_ic_star_black_48dp.png",
    "res/drawable-hdpi-v4/abc_ic_star_half_black_16dp.png",
    "res/drawable-hdpi-v4/abc_ic_star_half_black_36dp.png",
    "res/drawable-hdpi-v4/abc_ic_star_half_black_48dp.png",
    "res/drawable-hdpi-v4/abc_list_divider_mtrl_alpha.9.png",
    "res/drawable-hdpi-v4/abc_list_focused_holo.9.png",
    "res/drawable-hdpi-v4/abc_list_longpressed_holo.9.png",
    "res/drawable-hdpi-v4/abc_list_pressed_holo_dark.9.png",
    "res/drawable-hdpi-v4/abc_list_pressed_holo_light.9.png",
    "res/drawable-hdpi-v4/abc_list_selector_disabled_holo_dark.9.png",
    "res/drawable-hdpi-v4/abc_list_selector_disabled_holo_light.9.png",
    "res/drawable-hdpi-v4/abc_menu_hardkey_panel_mtrl_mult.9.png",
    "res/drawable-hdpi-v4/abc_popup_background_mtrl_mult.9.png",
    "res/drawable-hdpi-v4/abc_scrubber_control_off_mtrl_alpha.png",
    "res/drawable-hdpi-v4/abc_scrubber_control_to_pressed_mtrl_000.png",
    "res/drawable-hdpi-v4/abc_scrubber_control_to_pressed_mtrl_005.png",
    "res/drawable-hdpi-v4/abc_scrubber_primary_mtrl_alpha.9.png",
    "res/drawable-hdpi-v4/abc_scrubber_track_mtrl_alpha.9.png",
    "res/drawable-hdpi-v4/abc_spinner_mtrl_am_alpha.9.png",
    "res/drawable-hdpi-v4/abc_switch_track_mtrl_alpha.9.png",
    "res/drawable-hdpi-v4/abc_tab_indicator_mtrl_alpha.9.png",
    "res/drawable-hdpi-v4/abc_text_select_handle_left_mtrl_dark.png",
    "res/drawable-hdpi-v4/abc_text_select_handle_left_mtrl_light.png",
    "res/drawable-hdpi-v4/abc_text_select_handle_middle_mtrl_dark.png",
    "res/drawable-hdpi-v4/abc_text_select_handle_middle_mtrl_light.png",
    "res/drawable-hdpi-v4/abc_text_select_handle_right_mtrl_dark.png",
    "res/drawable-hdpi-v4/abc_text_select_handle_right_mtrl_light.png",
    "res/drawable-hdpi-v4/abc_textfield_activated_mtrl_alpha.9.png",
    "res/drawable-hdpi-v4/abc_textfield_default_mtrl_alpha.9.png",
    "res/drawable-hdpi-v4/abc_textfield_search_activated_mtrl_alpha.9.png",
    "res/drawable-hdpi-v4/abc_textfield_search_default_mtrl_alpha.9.png",
    "res/drawable-hdpi-v4/design_ic_visibility.png",
    "res/drawable-hdpi-v4/design_ic_visibility_off.png",
    "res/drawable-hdpi-v4/lb_action_bg_focused.9.png",
    "res/drawable-hdpi-v4/lb_ic_actions_right_arrow.png",
    "res/drawable-hdpi-v4/lb_ic_in_app_search.png",
    "res/drawable-hdpi-v4/lb_ic_sad_cloud.png",
    "res/drawable-hdpi-v4/lb_ic_search_mic.png",
    "res/drawable-hdpi-v4/lb_ic_search_mic_out.png",
    "res/drawable-hdpi-v4/lb_in_app_search_bg.9.png",
    "res/drawable-hdpi-v4/lb_in_app_search_shadow_focused.9.png",
    "res/drawable-hdpi-v4/lb_in_app_search_shadow_normal.9.png",
    "res/drawable-hdpi-v4/notification_bg_low_normal.9.png",
    "res/drawable-hdpi-v4/notification_bg_low_pressed.9.png",
    "res/drawable-hdpi-v4/notification_bg_normal.9.png",
    "res/drawable-hdpi-v4/notification_bg_normal_pressed.9.png",
    "res/drawable-hdpi-v4/notify_panel_notification_icon_bg.png",
    "res/drawable-ldrtl-hdpi-v4/abc_ic_menu_copy_mtrl_am_alpha.png",
    "res/drawable-ldrtl-hdpi-v4/abc_ic_menu_cut_mtrl_alpha.png",
    "res/drawable-ldrtl-hdpi-v4/abc_spinner_mtrl_am_alpha.9.png",
    "res/drawable-ldrtl-mdpi-v4/abc_ic_menu_copy_mtrl_am_alpha.png",
    "res/drawable-ldrtl-mdpi-v4/abc_ic_menu_cut_mtrl_alpha.png",
    "res/drawable-ldrtl-mdpi-v4/abc_spinner_mtrl_am_alpha.9.png",
    "res/drawable-ldrtl-xhdpi-v4/abc_ic_menu_copy_mtrl_am_alpha.png",
    "res/drawable-ldrtl-xhdpi-v4/abc_ic_menu_cut_mtrl_alpha.png",
    "res/drawable-ldrtl-xhdpi-v4/abc_spinner_mtrl_am_alpha.9.png",
    "res/drawable-ldrtl-xxhdpi-v4/abc_ic_menu_copy_mtrl_am_alpha.png",
    "res/drawable-ldrtl-xxhdpi-v4/abc_ic_menu_cut_mtrl_alpha.png",
    "res/drawable-ldrtl-xxhdpi-v4/abc_spinner_mtrl_am_alpha.9.png",
    "res/drawable-ldrtl-xxxhdpi-v4/abc_ic_menu_copy_mtrl_am_alpha.png",
    "res/drawable-ldrtl-xxxhdpi-v4/abc_ic_menu_cut_mtrl_alpha.png",
    "res/drawable-ldrtl-xxxhdpi-v4/abc_spinner_mtrl_am_alpha.9.png",
    "res/drawable-mdpi-v4/abc_ab_share_pack_mtrl_alpha.9.png",
    "res/drawable-mdpi-v4/abc_btn_check_to_on_mtrl_000.png",
    "res/drawable-mdpi-v4/abc_btn_check_to_on_mtrl_015.png",
    "res/drawable-mdpi-v4/abc_btn_radio_to_on_mtrl_000.png",
    "res/drawable-mdpi-v4/abc_btn_radio_to_on_mtrl_015.png",
    "res/drawable-mdpi-v4/abc_btn_switch_to_on_mtrl_00001.9.png",
    "res/drawable-mdpi-v4/abc_btn_switch_to_on_mtrl_00012.9.png",
    "res/drawable-mdpi-v4/abc_cab_background_top_mtrl_alpha.9.png",
    "res/drawable-mdpi-v4/abc_ic_commit_search_api_mtrl_alpha.png",
    "res/drawable-mdpi-v4/abc_ic_menu_copy_mtrl_am_alpha.png",
    "res/drawable-mdpi-v4/abc_ic_menu_cut_mtrl_alpha.png",
    "res/drawable-mdpi-v4/abc_ic_menu_paste_mtrl_am_alpha.png",
    "res/drawable-mdpi-v4/abc_ic_menu_selectall_mtrl_alpha.png",
    "res/drawable-mdpi-v4/abc_ic_menu_share_mtrl_alpha.png",
    "res/drawable-mdpi-v4/abc_ic_star_black_16dp.png",
    "res/drawable-mdpi-v4/abc_ic_star_black_36dp.png",
    "res/drawable-mdpi-v4/abc_ic_star_black_48dp.png",
    "res/drawable-mdpi-v4/abc_ic_star_half_black_16dp.png",
    "res/drawable-mdpi-v4/abc_ic_star_half_black_36dp.png",
    "res/drawable-mdpi-v4/abc_ic_star_half_black_48dp.png",
    "res/drawable-mdpi-v4/abc_list_divider_mtrl_alpha.9.png",
    "res/drawable-mdpi-v4/abc_list_focused_holo.9.png",
    "res/drawable-mdpi-v4/abc_list_longpressed_holo.9.png",
    "res/drawable-mdpi-v4/abc_list_pressed_holo_dark.9.png",
    "res/drawable-mdpi-v4/abc_list_pressed_holo_light.9.png",
    "res/drawable-mdpi-v4/abc_list_selector_disabled_holo_dark.9.png",
    "res/drawable-mdpi-v4/abc_list_selector_disabled_holo_light.9.png",
    "res/drawable-mdpi-v4/abc_menu_hardkey_panel_mtrl_mult.9.png",
    "res/drawable-mdpi-v4/abc_popup_background_mtrl_mult.9.png",
    "res/drawable-mdpi-v4/abc_scrubber_control_off_mtrl_alpha.png",
    "res/drawable-mdpi-v4/abc_scrubber_control_to_pressed_mtrl_000.png",
    "res/drawable-mdpi-v4/abc_scrubber_control_to_pressed_mtrl_005.png",
    "res/drawable-mdpi-v4/abc_scrubber_primary_mtrl_alpha.9.png",
    "res/drawable-mdpi-v4/abc_scrubber_track_mtrl_alpha.9.png",
    "res/drawable-mdpi-v4/abc_spinner_mtrl_am_alpha.9.png",
    "res/drawable-mdpi-v4/abc_switch_track_mtrl_alpha.9.png",
    "res/drawable-mdpi-v4/abc_tab_indicator_mtrl_alpha.9.png",
    "res/drawable-mdpi-v4/abc_text_select_handle_left_mtrl_dark.png",
    "res/drawable-mdpi-v4/abc_text_select_handle_left_mtrl_light.png",
    "res/drawable-mdpi-v4/abc_text_select_handle_middle_mtrl_dark.png",
    "res/drawable-mdpi-v4/abc_text_select_handle_middle_mtrl_light.png",
    "res/drawable-mdpi-v4/abc_text_select_handle_right_mtrl_dark.png",
    "res/drawable-mdpi-v4/abc_text_select_handle_right_mtrl_light.png",
    "res/drawable-mdpi-v4/abc_textfield_activated_mtrl_alpha.9.png",
    "res/drawable-mdpi-v4/abc_textfield_default_mtrl_alpha.9.png",
    "res/drawable-mdpi-v4/abc_textfield_search_activated_mtrl_alpha.9.png",
    "res/drawable-mdpi-v4/abc_textfield_search_default_mtrl_alpha.9.png",
    "res/drawable-mdpi-v4/design_ic_visibility.png",
    "res/drawable-mdpi-v4/design_ic_visibility_off.png",
    "res/drawable-mdpi-v4/lb_action_bg_focused.9.png",
    "res/drawable-mdpi-v4/lb_ic_actions_right_arrow.png",
    "res/drawable-mdpi-v4/lb_ic_in_app_search.png",
    "res/drawable-mdpi-v4/lb_ic_sad_cloud.png",
    "res/drawable-mdpi-v4/lb_ic_search_mic.png",
    "res/drawable-mdpi-v4/lb_ic_search_mic_out.png",
    "res/drawable-mdpi-v4/lb_in_app_search_bg.9.png",
    "res/drawable-mdpi-v4/lb_in_app_search_shadow_focused.9.png",
    "res/drawable-mdpi-v4/lb_in_app_search_shadow_normal.9.png",
    "res/drawable-mdpi-v4/notification_bg_low_normal.9.png",
    "res/drawable-mdpi-v4/notification_bg_low_pressed.9.png",
    "res/drawable-mdpi-v4/notification_bg_normal.9.png",
    "res/drawable-mdpi-v4/notification_bg_normal_pressed.9.png",
    "res/drawable-mdpi-v4/notify_panel_notification_icon_bg.png",
    "res/drawable-xhdpi-v4/abc_ab_share_pack_mtrl_alpha.9.png",
    "res/drawable-xhdpi-v4/abc_btn_check_to_on_mtrl_000.png",
    "res/drawable-xhdpi-v4/abc_btn_check_to_on_mtrl_015.png",
    "res/drawable-xhdpi-v4/abc_btn_radio_to_on_mtrl_000.png",
    "res/drawable-xhdpi-v4/abc_btn_radio_to_on_mtrl_015.png",
    "res/drawable-xhdpi-v4/abc_btn_switch_to_on_mtrl_00001.9.png",
    "res/drawable-xhdpi-v4/abc_btn_switch_to_on_mtrl_00012.9.png",
    "res/drawable-xhdpi-v4/abc_cab_background_top_mtrl_alpha.9.png",
    "res/drawable-xhdpi-v4/abc_ic_commit_search_api_mtrl_alpha.png",
    "res/drawable-xhdpi-v4/abc_ic_menu_copy_mtrl_am_alpha.png",
    "res/drawable-xhdpi-v4/abc_ic_menu_cut_mtrl_alpha.png",
    "res/drawable-xhdpi-v4/abc_ic_menu_paste_mtrl_am_alpha.png",
    "res/drawable-xhdpi-v4/abc_ic_menu_selectall_mtrl_alpha.png",
    "res/drawable-xhdpi-v4/abc_ic_menu_share_mtrl_alpha.png",
    "res/drawable-xhdpi-v4/abc_ic_star_black_16dp.png",
    "res/drawable-xhdpi-v4/abc_ic_star_black_36dp.png",
    "res/drawable-xhdpi-v4/abc_ic_star_black_48dp.png",
    "res/drawable-xhdpi-v4/abc_ic_star_half_black_16dp.png",
    "res/drawable-xhdpi-v4/abc_ic_star_half_black_36dp.png",
    "res/drawable-xhdpi-v4/abc_ic_star_half_black_48dp.png",
    "res/drawable-xhdpi-v4/abc_list_divider_mtrl_alpha.9.png",
    "res/drawable-xhdpi-v4/abc_list_focused_holo.9.png",
    "res/drawable-xhdpi-v4/abc_list_longpressed_holo.9.png",
    "res/drawable-xhdpi-v4/abc_list_pressed_holo_dark.9.png",
    "res/drawable-xhdpi-v4/abc_list_pressed_holo_light.9.png",
    "res/drawable-xhdpi-v4/abc_list_selector_disabled_holo_dark.9.png",
    "res/drawable-xhdpi-v4/abc_list_selector_disabled_holo_light.9.png",
    "res/drawable-xhdpi-v4/abc_menu_hardkey_panel_mtrl_mult.9.png",
    "res/drawable-xhdpi-v4/abc_popup_background_mtrl_mult.9.png",
    "res/drawable-xhdpi-v4/abc_scrubber_control_off_mtrl_alpha.png",
    "res/drawable-xhdpi-v4/abc_scrubber_control_to_pressed_mtrl_000.png",
    "res/drawable-xhdpi-v4/abc_scrubber_control_to_pressed_mtrl_005.png",
    "res/drawable-xhdpi-v4/abc_scrubber_primary_mtrl_alpha.9.png",
    "res/drawable-xhdpi-v4/abc_scrubber_track_mtrl_alpha.9.png",
    "res/drawable-xhdpi-v4/abc_spinner_mtrl_am_alpha.9.png",
    "res/drawable-xhdpi-v4/abc_switch_track_mtrl_alpha.9.png",
    "res/drawable-xhdpi-v4/abc_tab_indicator_mtrl_alpha.9.png",
    "res/drawable-xhdpi-v4/abc_text_select_handle_left_mtrl_dark.png",
    "res/drawable-xhdpi-v4/abc_text_select_handle_left_mtrl_light.png",
    "res/drawable-xhdpi-v4/abc_text_select_handle_middle_mtrl_dark.png",
    "res/drawable-xhdpi-v4/abc_text_select_handle_middle_mtrl_light.png",
    "res/drawable-xhdpi-v4/abc_text_select_handle_right_mtrl_dark.png",
    "res/drawable-xhdpi-v4/abc_text_select_handle_right_mtrl_light.png",
    "res/drawable-xhdpi-v4/abc_textfield_activated_mtrl_alpha.9.png",
    "res/drawable-xhdpi-v4/abc_textfield_default_mtrl_alpha.9.png",
    "res/drawable-xhdpi-v4/abc_textfield_search_activated_mtrl_alpha.9.png",
    "res/drawable-xhdpi-v4/abc_textfield_search_default_mtrl_alpha.9.png",
    "res/drawable-xhdpi-v4/design_ic_visibility.png",
    "res/drawable-xhdpi-v4/design_ic_visibility_off.png",
    "res/drawable-xhdpi-v4/ic_bluetooth_statusbar.png",
    "res/drawable-xhdpi-v4/ic_headphone_statusbar.png",
    "res/drawable-xhdpi-v4/ic_speaker_statusbar.png",
    "res/drawable-xhdpi-v4/lb_action_bg_focused.9.png",
    "res/drawable-xhdpi-v4/lb_card_shadow_focused.9.png",
    "res/drawable-xhdpi-v4/lb_card_shadow_normal.9.png",
    "res/drawable-xhdpi-v4/lb_ic_actions_right_arrow.png",
    "res/drawable-xhdpi-v4/lb_ic_cc.png",
    "res/drawable-xhdpi-v4/lb_ic_fast_forward.png",
    "res/drawable-xhdpi-v4/lb_ic_fast_rewind.png",
    "res/drawable-xhdpi-v4/lb_ic_guidedactions_item_chevron.png",
    "res/drawable-xhdpi-v4/lb_ic_hq.png",
    "res/drawable-xhdpi-v4/lb_ic_in_app_search.png",
    "res/drawable-xhdpi-v4/lb_ic_loop.png",
    "res/drawable-xhdpi-v4/lb_ic_loop_one.png",
    "res/drawable-xhdpi-v4/lb_ic_more.png",
    "res/drawable-xhdpi-v4/lb_ic_nav_arrow.png",
    "res/drawable-xhdpi-v4/lb_ic_pause.png",
    "res/drawable-xhdpi-v4/lb_ic_pip.png",
    "res/drawable-xhdpi-v4/lb_ic_play.png",
    "res/drawable-xhdpi-v4/lb_ic_play_fit.png",
    "res/drawable-xhdpi-v4/lb_ic_playback_loop.png",
    "res/drawable-xhdpi-v4/lb_ic_replay.png",
    "res/drawable-xhdpi-v4/lb_ic_sad_cloud.png",
    "res/drawable-xhdpi-v4/lb_ic_search_mic.png",
    "res/drawable-xhdpi-v4/lb_ic_search_mic_out.png",
    "res/drawable-xhdpi-v4/lb_ic_shuffle.png",
    "res/drawable-xhdpi-v4/lb_ic_skip_next.png",
    "res/drawable-xhdpi-v4/lb_ic_skip_previous.png",
    "res/drawable-xhdpi-v4/lb_ic_stop.png",
    "res/drawable-xhdpi-v4/lb_ic_thumb_down.png",
    "res/drawable-xhdpi-v4/lb_ic_thumb_down_outline.png",
    "res/drawable-xhdpi-v4/lb_ic_thumb_up.png",
    "res/drawable-xhdpi-v4/lb_ic_thumb_up_outline.png",
    "res/drawable-xhdpi-v4/lb_in_app_search_bg.9.png",
    "res/drawable-xhdpi-v4/lb_in_app_search_shadow_focused.9.png",
    "res/drawable-xhdpi-v4/lb_in_app_search_shadow_normal.9.png",
    "res/drawable-xhdpi-v4/lb_text_dot_one.png",
    "res/drawable-xhdpi-v4/lb_text_dot_one_small.png",
    "res/drawable-xhdpi-v4/lb_text_dot_two.png",
    "res/drawable-xhdpi-v4/lb_text_dot_two_small.png",
    "res/drawable-xhdpi-v4/notification_bg_low_normal.9.png",
    "res/drawable-xhdpi-v4/notification_bg_low_pressed.9.png",
    "res/drawable-xhdpi-v4/notification_bg_normal.9.png",
    "res/drawable-xhdpi-v4/notification_bg_normal_pressed.9.png",
    "res/drawable-xhdpi-v4/notify_panel_notification_icon_bg.png",
    "res/drawable-xxhdpi-v4/abc_ab_share_pack_mtrl_alpha.9.png",
    "res/drawable-xxhdpi-v4/abc_btn_check_to_on_mtrl_000.png",
    "res/drawable-xxhdpi-v4/abc_btn_check_to_on_mtrl_015.png",
    "res/drawable-xxhdpi-v4/abc_btn_radio_to_on_mtrl_000.png",
    "res/drawable-xxhdpi-v4/abc_btn_radio_to_on_mtrl_015.png",
    "res/drawable-xxhdpi-v4/abc_btn_switch_to_on_mtrl_00001.9.png",
    "res/drawable-xxhdpi-v4/abc_btn_switch_to_on_mtrl_00012.9.png",
    "res/drawable-xxhdpi-v4/abc_cab_background_top_mtrl_alpha.9.png",
    "res/drawable-xxhdpi-v4/abc_ic_commit_search_api_mtrl_alpha.png",
    "res/drawable-xxhdpi-v4/abc_ic_menu_copy_mtrl_am_alpha.png",
    "res/drawable-xxhdpi-v4/abc_ic_menu_cut_mtrl_alpha.png",
    "res/drawable-xxhdpi-v4/abc_ic_menu_paste_mtrl_am_alpha.png",
    "res/drawable-xxhdpi-v4/abc_ic_menu_selectall_mtrl_alpha.png",
    "res/drawable-xxhdpi-v4/abc_ic_menu_share_mtrl_alpha.png",
    "res/drawable-xxhdpi-v4/abc_ic_star_black_16dp.png",
    "res/drawable-xxhdpi-v4/abc_ic_star_black_36dp.png",
    "res/drawable-xxhdpi-v4/abc_ic_star_black_48dp.png",
    "res/drawable-xxhdpi-v4/abc_ic_star_half_black_16dp.png",
    "res/drawable-xxhdpi-v4/abc_ic_star_half_black_36dp.png",
    "res/drawable-xxhdpi-v4/abc_ic_star_half_black_48dp.png",
    "res/drawable-xxhdpi-v4/abc_list_divider_mtrl_alpha.9.png",
    "res/drawable-xxhdpi-v4/abc_list_focused_holo.9.png",
    "res/drawable-xxhdpi-v4/abc_list_longpressed_holo.9.png",
    "res/drawable-xxhdpi-v4/abc_list_pressed_holo_dark.9.png",
    "res/drawable-xxhdpi-v4/abc_list_pressed_holo_light.9.png",
    "res/drawable-xxhdpi-v4/abc_list_selector_disabled_holo_dark.9.png",
    "res/drawable-xxhdpi-v4/abc_list_selector_disabled_holo_light.9.png",
    "res/drawable-xxhdpi-v4/abc_menu_hardkey_panel_mtrl_mult.9.png",
    "res/drawable-xxhdpi-v4/abc_popup_background_mtrl_mult.9.png",
    "res/drawable-xxhdpi-v4/abc_scrubber_control_off_mtrl_alpha.png",
    "res/drawable-xxhdpi-v4/abc_scrubber_control_to_pressed_mtrl_000.png",
    "res/drawable-xxhdpi-v4/abc_scrubber_control_to_pressed_mtrl_005.png",
    "res/drawable-xxhdpi-v4/abc_scrubber_primary_mtrl_alpha.9.png",
    "res/drawable-xxhdpi-v4/abc_scrubber_track_mtrl_alpha.9.png",
    "res/drawable-xxhdpi-v4/abc_spinner_mtrl_am_alpha.9.png",
    "res/drawable-xxhdpi-v4/abc_switch_track_mtrl_alpha.9.png",
    "res/drawable-xxhdpi-v4/abc_tab_indicator_mtrl_alpha.9.png",
    "res/drawable-xxhdpi-v4/abc_text_select_handle_left_mtrl_dark.png",
    "res/drawable-xxhdpi-v4/abc_text_select_handle_left_mtrl_light.png",
    "res/drawable-xxhdpi-v4/abc_text_select_handle_middle_mtrl_dark.png",
    "res/drawable-xxhdpi-v4/abc_text_select_handle_middle_mtrl_light.png",
    "res/drawable-xxhdpi-v4/abc_text_select_handle_right_mtrl_dark.png",
    "res/drawable-xxhdpi-v4/abc_text_select_handle_right_mtrl_light.png",
    "res/drawable-xxhdpi-v4/abc_textfield_activated_mtrl_alpha.9.png",
    "res/drawable-xxhdpi-v4/abc_textfield_default_mtrl_alpha.9.png",
    "res/drawable-xxhdpi-v4/abc_textfield_search_activated_mtrl_alpha.9.png",
    "res/drawable-xxhdpi-v4/abc_textfield_search_default_mtrl_alpha.9.png",
    "res/drawable-xxhdpi-v4/ic_bluetooth_statusbar.png",
    "res/drawable-xxhdpi-v4/ic_headphone_statusbar.png",
    "res/drawable-xxhdpi-v4/ic_speaker_statusbar.png",
    "res/drawable-xxhdpi-v4/lb_action_bg_focused.9.png",
    "res/drawable-xxhdpi-v4/lb_ic_actions_right_arrow.png",
    "res/drawable-xxhdpi-v4/lb_ic_in_app_search.png",
    "res/drawable-xxhdpi-v4/lb_ic_sad_cloud.png",
    "res/drawable-xxhdpi-v4/lb_ic_search_mic.png",
    "res/drawable-xxhdpi-v4/lb_ic_search_mic_out.png",
    "res/drawable-xxhdpi-v4/lb_in_app_search_bg.9.png",
    "res/drawable-xxhdpi-v4/lb_in_app_search_shadow_focused.9.png",
    "res/drawable-xxhdpi-v4/lb_in_app_search_shadow_normal.9.png",
    "res/ic_launcher.png",
    "res/raw/lb_voice_failure.ogg",
    "res/raw/lb_voice_no_input.ogg",
    "res/raw/lb_voice_open.ogg",
    "res/raw/lb_voice_success.ogg",
    "resources.arsc"
  ]
}